<svg width="70" height="70" viewBox="0 0 70 70" fill="none" xmlns="http://www.w3.org/2000/svg">
<path d="M35 23.3333C32.6926 23.3333 30.437 24.0176 28.5184 25.2995C26.5998 26.5815 25.1045 28.4036 24.2215 30.5354C23.3384 32.6672 23.1074 35.013 23.5576 37.2761C24.0077 39.5392 25.1189 41.618 26.7505 43.2496C28.3821 44.8812 30.4609 45.9923 32.724 46.4425C34.9871 46.8927 37.3329 46.6616 39.4647 45.7786C41.5965 44.8956 43.4186 43.4002 44.7005 41.4817C45.9825 39.5631 46.6667 37.3075 46.6667 35C46.6667 31.9058 45.4375 28.9384 43.2496 26.7504C41.0617 24.5625 38.0942 23.3333 35 23.3333ZM35 40.8333C33.8463 40.8333 32.7185 40.4912 31.7592 39.8502C30.7999 39.2093 30.0523 38.2982 29.6107 37.2323C29.1692 36.1664 29.0537 34.9935 29.2788 33.862C29.5039 32.7304 30.0595 31.691 30.8753 30.8752C31.6911 30.0594 32.7305 29.5038 33.862 29.2788C34.9936 29.0537 36.1665 29.1692 37.2324 29.6107C38.2983 30.0522 39.2093 30.7999 39.8503 31.7592C40.4913 32.7185 40.8334 33.8463 40.8334 35C40.8334 36.5471 40.2188 38.0308 39.1248 39.1248C38.0309 40.2188 36.5471 40.8333 35 40.8333Z" fill="url(#paint0_linear)"/>
<path d="M62.1076 40.5417L60.8126 39.795C61.3956 36.623 61.3956 33.3712 60.8126 30.1992L62.1076 29.4525C63.1034 28.878 63.9764 28.1129 64.6766 27.201C65.3767 26.2891 65.8905 25.2482 66.1884 24.1378C66.4863 23.0274 66.5626 21.8691 66.4129 20.7292C66.2632 19.5893 65.8904 18.49 65.3159 17.4942C64.7414 16.4983 63.9763 15.6254 63.0644 14.9252C62.1525 14.225 61.1116 13.7113 60.0012 13.4133C58.8908 13.1154 57.7325 13.0391 56.5926 13.1888C55.4527 13.3385 54.3534 13.7113 53.3576 14.2858L52.0597 15.0354C49.6083 12.941 46.7912 11.3174 43.7501 10.2463V8.75C43.7501 6.42936 42.8282 4.20376 41.1872 2.56282C39.5463 0.921872 37.3207 0 35.0001 0C32.6794 0 30.4538 0.921872 28.8129 2.56282C27.1719 4.20376 26.2501 6.42936 26.2501 8.75V10.2463C23.2091 11.3212 20.393 12.9488 17.9434 15.0471L16.6396 14.2917C14.6284 13.1313 12.2386 12.8175 9.99601 13.4192C7.75339 14.0209 5.84164 15.4888 4.68131 17.5C3.52099 19.5112 3.20715 21.901 3.80883 24.1436C4.41051 26.3863 5.87842 28.298 7.88965 29.4583L9.18465 30.205C8.60163 33.377 8.60163 36.6288 9.18465 39.8008L7.88965 40.5475C5.87842 41.7078 4.41051 43.6196 3.80883 45.8622C3.20715 48.1048 3.52099 50.4946 4.68131 52.5058C5.84164 54.5171 7.75339 55.985 9.99601 56.5867C12.2386 57.1883 14.6284 56.8745 16.6396 55.7142L17.9376 54.9646C20.3898 57.0593 23.2079 58.6829 26.2501 59.7537V61.25C26.2501 63.5706 27.1719 65.7962 28.8129 67.4372C30.4538 69.0781 32.6794 70 35.0001 70C37.3207 70 39.5463 69.0781 41.1872 67.4372C42.8282 65.7962 43.7501 63.5706 43.7501 61.25V59.7537C46.791 58.6788 49.6072 57.0512 52.0567 54.9529L53.3605 55.7054C55.3717 56.8657 57.7615 57.1796 60.0041 56.5779C62.2467 55.9762 64.1585 54.5083 65.3188 52.4971C66.4791 50.4859 66.793 48.0961 66.1913 45.8535C65.5896 43.6108 64.1217 41.6991 62.1105 40.5387L62.1076 40.5417ZM54.6759 29.5283C55.6636 33.1073 55.6636 36.8869 54.6759 40.4658C54.5034 41.0887 54.5428 41.7513 54.7877 42.3494C55.0327 42.9476 55.4694 43.4474 56.0292 43.7704L59.1909 45.5963C59.8612 45.983 60.3504 46.6202 60.5508 47.3677C60.7513 48.1151 60.6466 48.9116 60.2599 49.5819C59.8731 50.2522 59.2359 50.7413 58.4884 50.9418C57.741 51.1423 56.9445 51.0376 56.2742 50.6508L53.1067 48.8192C52.5464 48.4946 51.8941 48.3658 51.2524 48.4529C50.6108 48.5401 50.0164 48.8382 49.563 49.3004C46.9669 51.9507 43.6963 53.8416 40.1042 54.7692C39.4772 54.9304 38.9217 55.2956 38.5251 55.8073C38.1286 56.319 37.9135 56.948 37.9138 57.5954V61.25C37.9138 62.0235 37.6065 62.7654 37.0595 63.3124C36.5126 63.8594 35.7707 64.1667 34.9971 64.1667C34.2236 64.1667 33.4817 63.8594 32.9347 63.3124C32.3878 62.7654 32.0805 62.0235 32.0805 61.25V57.5983C32.0808 56.951 31.8657 56.3219 31.4692 55.8102C31.0726 55.2985 30.517 54.9333 29.8901 54.7721C26.2977 53.8407 23.0281 51.9457 20.4342 49.2917C19.9808 48.8295 19.3864 48.5313 18.7448 48.4442C18.1032 48.3571 17.4508 48.4859 16.8905 48.8104L13.7288 50.6392C13.397 50.8337 13.03 50.9607 12.6488 51.0128C12.2677 51.0649 11.8801 51.0411 11.5082 50.9428C11.1363 50.8445 10.7876 50.6736 10.482 50.4399C10.1765 50.2063 9.92017 49.9145 9.72784 49.5814C9.53551 49.2483 9.41097 48.8804 9.36139 48.499C9.31181 48.1175 9.33817 47.73 9.43895 47.3588C9.53973 46.9876 9.71295 46.64 9.94862 46.336C10.1843 46.032 10.4778 45.7776 10.8121 45.5875L13.9738 43.7617C14.5337 43.4387 14.9704 42.9388 15.2153 42.3407C15.4603 41.7426 15.4996 41.08 15.3271 40.4571C14.3394 36.8781 14.3394 33.0985 15.3271 29.5196C15.4965 28.898 15.4553 28.2378 15.2099 27.6421C14.9646 27.0464 14.5289 26.5487 13.9709 26.2267L10.8092 24.4008C10.139 24.0141 9.64977 23.3769 9.4493 22.6294C9.24883 21.882 9.3535 21.0855 9.74027 20.4152C10.127 19.7449 10.7642 19.2557 11.5117 19.0553C12.2591 18.8548 13.0556 18.9595 13.7259 19.3463L16.8934 21.1779C17.4522 21.5032 18.1032 21.6335 18.7441 21.5485C19.385 21.4635 19.9795 21.168 20.4342 20.7083C23.0303 18.0581 26.3009 16.1671 29.893 15.2396C30.5219 15.0779 31.0789 14.7109 31.4757 14.1969C31.8724 13.6828 32.0863 13.051 32.0834 12.4017V8.75C32.0834 7.97645 32.3907 7.23459 32.9377 6.68761C33.4846 6.14062 34.2265 5.83333 35.0001 5.83333C35.7736 5.83333 36.5155 6.14062 37.0625 6.68761C37.6094 7.23459 37.9167 7.97645 37.9167 8.75V12.4017C37.9164 13.049 38.1315 13.6781 38.528 14.1898C38.9246 14.7015 39.4802 15.0667 40.1071 15.2279C43.7005 16.1588 46.9712 18.0538 49.5659 20.7083C50.0194 21.1705 50.6137 21.4687 51.2554 21.5558C51.897 21.643 52.5493 21.5141 53.1096 21.1896L56.2713 19.3608C56.6031 19.1663 56.9702 19.0393 57.3513 18.9872C57.7324 18.9351 58.12 18.9589 58.4919 19.0572C58.8638 19.1555 59.2125 19.3264 59.5181 19.5601C59.8236 19.7937 60.08 20.0855 60.2723 20.4186C60.4646 20.7517 60.5892 21.1196 60.6387 21.5011C60.6883 21.8825 60.662 22.27 60.5612 22.6412C60.4604 23.0124 60.2872 23.36 60.0515 23.664C59.8158 23.968 59.5224 24.2224 59.188 24.4125L56.0263 26.2383C55.4694 26.5612 55.0349 27.0593 54.7906 27.6549C54.5464 28.2506 54.506 28.9103 54.6759 29.5312V29.5283Z" fill="url(#paint1_linear)"/>
<defs>
<linearGradient id="paint0_linear" x1="23.3334" y1="46.6667" x2="48.7697" y2="44.0895" gradientUnits="userSpaceOnUse">
<stop stop-color="#2192BF"/>
<stop offset="1" stop-color="#1AD2D6"/>
</linearGradient>
<linearGradient id="paint1_linear" x1="3.50977" y1="70" x2="72.2999" y2="63.7292" gradientUnits="userSpaceOnUse">
<stop stop-color="#2192BF"/>
<stop offset="1" stop-color="#1AD2D6"/>
</linearGradient>
</defs>
</svg>
