<svg width="166" height="162" viewBox="0 0 166 162" fill="none" xmlns="http://www.w3.org/2000/svg">
<path d="M165.649 129.219C164.405 124.678 159.71 120.628 152.34 122.461L149.288 123.174V96.3813C149.288 95.0381 148.2 93.9493 146.857 93.9493C145.514 93.9493 144.425 95.0381 144.425 96.3813V124.311L114.808 131.234C113.88 131.451 112.985 131.575 112.101 131.635V64.6011H112.991H144.425V85.1124C144.425 86.4557 145.514 87.5441 146.857 87.5441C148.2 87.5441 149.288 86.4554 149.288 85.1124V64.6011H154.913C157.943 64.6011 160.408 62.1357 160.408 59.1052V46.4708C160.408 43.4406 157.943 40.9753 154.913 40.9753H136.855C140.277 35.9064 142.398 30.9501 143.163 26.1951C144.037 20.7648 143.097 15.6463 140.443 11.3932C135.417 3.338 124.87 -0.71992 114.795 1.52562C109.859 2.62602 105.503 5.17665 102.198 8.90257C98.9013 12.6194 96.7372 17.342 95.7438 22.9597H86.3213C85.3269 17.3413 83.1615 12.6181 79.8632 8.90127C76.5568 5.17567 72.2 2.62472 67.2634 1.52465C57.1899 -0.718623 46.6431 3.33768 41.6174 11.3932C38.9636 15.646 38.0228 20.7644 38.8965 26.1948C39.6614 30.9498 41.7811 35.9061 45.2026 40.9749H27.1439C24.1186 40.9749 21.6575 43.4403 21.6575 46.4704V59.1049C21.6575 62.1354 24.1186 64.6008 27.1439 64.6008H32.7772V105.78L28.8425 106.995C27.8018 104.652 25.457 103.012 22.7326 103.012H6.68572C2.99935 103.013 0 106.012 0 109.699V149.07C0 152.757 2.99935 155.756 6.68572 155.756H22.7329C25.7083 155.756 28.2333 153.801 29.098 151.109L50.288 154.779C51.6091 155.008 52.8694 154.121 53.0989 152.798C53.3282 151.475 52.4414 150.216 51.118 149.987L29.419 146.229V111.908L35.8836 109.911C35.915 109.902 35.9461 109.892 35.9769 109.882L50.2299 105.479C64.893 100.952 71.6319 100.188 81.1918 100.188H89.6776C95.0308 101.152 97.5315 105.318 97.2329 108.979C96.9738 112.158 94.5218 115.555 88.4174 115.555H81.8101C76.6693 115.221 73.3992 118.847 72.8179 122.623C72.2577 126.262 74.2422 130.789 79.9225 132.13C79.9744 132.142 80.0269 132.152 80.0798 132.161L101.101 135.678C101.172 135.689 101.243 135.698 101.314 135.704C102.559 135.8 103.761 135.944 104.925 136.083C108.499 136.511 111.875 136.916 115.916 135.97L153.464 127.193C153.476 127.191 153.488 127.187 153.5 127.185C158.018 126.056 160.315 128.16 160.958 130.505C161.64 132.993 160.572 136.209 156.615 137.391L97.7144 155C91.1311 156.968 85.6596 156.098 83.6128 155.632C83.5719 155.623 83.5308 155.615 83.4893 155.608L62.5697 151.981C61.2485 151.752 59.9876 152.638 59.7584 153.961C59.5288 155.284 60.4156 156.543 61.739 156.773L82.5983 160.389C83.8893 160.679 86.2587 161.089 89.3158 161.089C92.1063 161.089 95.4701 160.747 99.1072 159.659L158.008 142.051C164.707 140.05 166.945 133.946 165.649 129.219ZM71.5071 59.7375V45.8385H78.7644H103.301H110.559V59.7375H109.669H72.3974H71.5071ZM64.3159 40.9749C60.8231 36.1603 59.8469 31.7162 61.6499 28.6699C63.1111 26.2013 66.3605 24.846 69.5488 25.3726C72.993 25.9416 75.4532 28.474 76.3328 32.3296V40.9746H69.0755H64.3159V40.9749ZM83.7937 27.8233H84.2638H84.2703H98.2723C99.6801 27.8233 100.869 29.0129 100.869 30.4213V32.0275V32.0459V40.9749H81.1961V32.0459C81.1961 32.0398 81.1961 32.0336 81.1961 32.0275V30.4213C81.1964 28.9889 82.3616 27.8233 83.7937 27.8233ZM117.75 40.9749H112.991H105.733V32.33C106.613 28.4744 109.073 25.9419 112.517 25.3729C115.708 24.8467 118.955 26.2019 120.416 28.6702C122.219 31.7162 121.243 36.1603 117.75 40.9749ZM155.545 46.4704V59.1049C155.545 59.4476 155.255 59.7371 154.913 59.7371H115.423V45.8385H154.913C155.25 45.8385 155.545 46.1339 155.545 46.4704ZM115.854 6.27218C123.821 4.49579 132.427 7.73246 136.317 13.9672C140.753 21.0763 138.81 30.6372 130.862 40.9746H123.544C127.67 33.7494 126.103 28.7289 124.602 26.1922C122.104 21.9718 116.928 19.7146 111.725 20.5738C108.438 21.1169 105.675 22.795 103.714 25.3242C102.874 24.4268 101.815 23.7375 100.623 23.3407C102.395 14.2227 107.852 8.05603 115.854 6.27218ZM45.744 13.9675C49.6337 7.73311 58.2407 4.49644 66.2061 6.27186C74.2091 8.05506 79.6687 14.2217 81.4438 23.341C80.2516 23.7378 79.1927 24.4271 78.352 25.3246C76.3915 22.7953 73.6291 21.1172 70.3419 20.5744C65.1378 19.714 59.9626 21.9725 57.4649 26.1925C55.9634 28.7292 54.3968 33.7494 58.5231 40.9749H51.1958C43.2498 30.6375 41.3084 21.0767 45.744 13.9675ZM26.5211 59.1052V46.4708C26.5211 46.1342 26.8122 45.8389 27.1439 45.8389H66.6432V59.7378H27.1439C26.8064 59.7375 26.5211 59.4476 26.5211 59.1052ZM24.5554 149.07C24.5554 150.058 23.7211 150.893 22.7332 150.893H6.68572C5.69782 150.893 4.86361 150.058 4.86361 149.07V109.699C4.86361 108.694 5.68129 107.876 6.68572 107.876H22.7329C23.7377 107.876 24.555 108.694 24.555 109.699V110.114V148.276V149.07H24.5554ZM48.7943 100.832L37.6408 104.278V64.6011H69.0751H69.9654V95.8914C64.2546 96.5668 58.0235 97.9826 48.7943 100.832ZM101.799 130.863L80.9672 127.378C78.576 126.79 77.3281 125.293 77.6251 123.362C77.8628 121.819 79.1917 120.239 81.5478 120.411C81.6075 120.416 81.6668 120.418 81.7268 120.418H88.4171C97.2335 120.418 101.632 114.871 102.08 109.374C102.563 103.45 98.6646 96.7328 90.2784 95.3565C90.1484 95.3354 90.0164 95.3244 89.8845 95.3244H81.1918C78.9645 95.3244 76.8843 95.3636 74.8297 95.4751V64.6011H107.237V131.455C106.671 131.393 106.094 131.325 105.504 131.254C104.323 131.113 103.104 130.967 101.799 130.863Z" fill="url(#paint0_linear)"/>
<defs>
<linearGradient id="paint0_linear" x1="2.89799e-06" y1="161.089" x2="180.825" y2="142.101" gradientUnits="userSpaceOnUse">
<stop stop-color="#2192BF"/>
<stop offset="1" stop-color="#1AD2D6"/>
</linearGradient>
</defs>
</svg>
